let str = React.string

open CoursesReview__Types

type state =
  | Loading
  | Loaded(SubmissionDetails.t)

module SubmissionDetailsQuery = %graphql(
  `
    query SubmissionDetailsQuery($submissionId: ID!) {
      submissionDetails(submissionId: $submissionId) {
        targetId, targetTitle, levelNumber, levelId, inactiveStudents, createdAt,
        students {
          id
          name
        },
        evaluationCriteria{
          id, name, maxGrade, passGrade, gradeLabels { grade label}
        },
        reviewChecklist{
          title
          result{
            title
            feedback
          }
        },
        targetEvaluationCriteriaIds,
        submission{
          id, evaluatorName, passedAt, createdAt, evaluatedAt
          files{
            url, title, id
          },
          grades {
            evaluationCriterionId, grade
          },
          feedback{
            id, coachName, coachAvatarUrl, coachTitle, createdAt, value
          },
          checklist
        }
        allSubmissions{
          id, passedAt, createdAt, evaluatedAt, feedbackSent
        }
        coaches{
          id, userId, name, title, avatarUrl
        }
        teamName
        courseId
      }
    }
  `
)

module NextSubmissionQuery = %graphql(
  `
    query NextSubmissionQuery($courseId: ID!, $search: String, $targetId: ID, $status: SubmissionStatus, $sortDirection: SortDirection!,$sortCriterion: SubmissionSortCriterion!, $levelId: ID, $coachId: ID, $excludeSubmissionId: ID, $after: String) {
      submissions(courseId: $courseId, search: $search, targetId: $targetId, status: $status, sortDirection: $sortDirection, excludeSubmissionId: $excludeSubmissionId, sortCriterion: $sortCriterion, levelId: $levelId, coachId: $coachId, first: 1, after: $after) {
        nodes {
          id
        }
      }
    }
  `
)

let getSubmissionDetails = (submissionId, setState, ()) => {
  setState(_ => Loading)
  SubmissionDetailsQuery.make(~submissionId, ())
  |> GraphqlQuery.sendQuery
  |> Js.Promise.then_(response => {
    setState(_ => Loaded(SubmissionDetails.decodeJs(response["submissionDetails"])))
    Js.Promise.resolve()
  })
  |> ignore

  None
}

let updateSubmission = (setState, submissionDetails, overlaySubmission) => {
  let newSubmissionDetails = SubmissionDetails.updateOverlaySubmission(
    overlaySubmission,
    submissionDetails,
  )

  setState(_ => Loaded(newSubmissionDetails))
}

let updateReviewChecklist = (submissionDetails, setState, reviewChecklist) =>
  setState(_ => Loaded(SubmissionDetails.updateReviewChecklist(reviewChecklist, submissionDetails)))

let currentSubmissionIndex = (submissionId, allSubmissions) => {
  Js.Array.length(allSubmissions) - Js.Array.findIndex(s => {
    SubmissionMeta.id(s) == submissionId
  }, allSubmissions)
}

@react.component
let make = (~submissionId, ~currentUser) => {
  let (state, setState) = React.useState(() => Loading)
  React.useEffect1(getSubmissionDetails(submissionId, setState), [submissionId])

  <div className="flex-1 md:flex md:flex-col md:overflow-hidden">
    {switch state {
    | Loaded(submissionDetails) =>
      <CoursesReview__Editor
        overlaySubmission={SubmissionDetails.submission(submissionDetails)}
        teamSubmission={SubmissionDetails.students(submissionDetails)->Js.Array2.length > 1}
        evaluationCriteria={SubmissionDetails.evaluationCriteria(submissionDetails)}
        targetEvaluationCriteriaIds={SubmissionDetails.targetEvaluationCriteriaIds(
          submissionDetails,
        )}
        reviewChecklist={SubmissionDetails.reviewChecklist(submissionDetails)}
        updateSubmissionCB={updateSubmission(setState, submissionDetails)}
        updateReviewChecklistCB={updateReviewChecklist(submissionDetails, setState)}
        targetId={SubmissionDetails.targetId(submissionDetails)}
        number={currentSubmissionIndex(
          submissionId,
          SubmissionDetails.allSubmissions(submissionDetails),
        )}
        currentUser
        submissionDetails
        submissionId
      />

    | Loading =>
      <div>
        <div className="bg-gray-100 md:px-4">
          <div className="mx-auto"> {SkeletonLoading.card()} </div>
        </div>
        <div className="grid md:grid-cols-2 mt-10 border-t h-full">
          <div className="md:px-4 bg-white">
            {SkeletonLoading.heading()}
            {SkeletonLoading.multiple(~count=3, ~element=SkeletonLoading.paragraph())}
          </div>
          <div className="md:px-4 bg-gray-100 border-l">
            {SkeletonLoading.profileCard()}
            {SkeletonLoading.paragraph()}
            {SkeletonLoading.profileCard()}
            {SkeletonLoading.paragraph()}
          </div>
        </div>
      </div>
    }}
  </div>
}
