type t = {
  name: string,
  title: string,
  isAdmin: bool,
  canEditProfile: bool,
  avatarUrl: option<string>,
  hasNotifications: bool,
  coachId: option<string>,
}

let name = t => t.name
let title = t => t.title
let isAdmin = t => t.isAdmin
let canEditProfile = t => t.canEditProfile
let avatarUrl = t => t.avatarUrl
let hasNotifications = t => t.hasNotifications
let coachId = t => t.coachId

let decode = json => {
  open Json.Decode
  {
    title: field("title", string, json),
    name: field("name", string, json),
    isAdmin: field("isAdmin", bool, json),
    canEditProfile: field("canEditProfile", bool, json),
    avatarUrl: optional(field("avatarUrl", string), json),
    hasNotifications: field("hasNotifications", bool, json),
    coachId: optional(field("coachId", string), json),
  }
}

let empty = () => {
  name: "Unknown User",
  title: "Unknown",
  isAdmin: false,
  canEditProfile: false,
  avatarUrl: None,
  hasNotifications: false,
  coachId: None,
}

let defaultUser = currentUser => Belt.Option.getWithDefault(currentUser, empty())
