exception InvalidModeForPreview

%bs.raw(`require("./MarkdownEditor.css")`)

let str = React.string

type fullscreenMode = [#Editor | #Preview | #Split]

type windowedMode = [#Editor | #Preview]

type mode =
  | Fullscreen(fullscreenMode)
  | Windowed(windowedMode)

type rec selection = (selectionStart, selectionEnd)
and selectionStart = int
and selectionEnd = int

type rec uploadState =
  | Uploading
  | ReadyToUpload(uploadError)
and uploadError = option<string>

type state = {
  id: string,
  mode: mode,
  selection: selection,
  uploadState: uploadState,
}

type action =
  | ClickPreview
  | ClickSplit
  | ClickFullscreen
  | SetSelection(selection)
  | BumpSelection(int)
  | PressEscapeKey
  | SetUploadError(uploadError)
  | SetUploading
  | FinishUploading

let reducer = (state, action) =>
  switch action {
  | ClickPreview =>
    let mode = switch state.mode {
    | Windowed(#Preview) => Windowed(#Editor)
    | Windowed(#Editor) => Windowed(#Preview)
    | Fullscreen(#Editor)
    | Fullscreen(#Split) =>
      Fullscreen(#Preview)
    | Fullscreen(#Preview) => Fullscreen(#Editor)
    }
    {...state, mode: mode}
  | ClickSplit =>
    let mode = switch state.mode {
    | Windowed(_) => Fullscreen(#Split)
    | Fullscreen(#Editor)
    | Fullscreen(#Preview) =>
      Fullscreen(#Split)
    | Fullscreen(#Split) => Fullscreen(#Editor)
    }
    {...state, mode: mode}
  | ClickFullscreen =>
    let mode = switch state.mode {
    | Windowed(#Editor) => Fullscreen(#Editor)
    | Windowed(#Preview) => Fullscreen(#Preview)
    | Fullscreen(#Editor) => Windowed(#Editor)
    | Fullscreen(#Preview) => Windowed(#Preview)
    | Fullscreen(#Split) => Windowed(#Editor)
    }
    {...state, mode: mode}
  | SetSelection(selection) => {...state, selection: selection}
  | BumpSelection(offset) =>
    let (selectionStart, selectionEnd) = state.selection
    {...state, selection: (selectionStart + offset, selectionEnd + offset)}
  | PressEscapeKey =>
    let mode = switch state.mode {
    | Fullscreen(#Editor) => Windowed(#Editor)
    | Windowed(#Preview)
    | Fullscreen(#Preview) =>
      Windowed(#Preview)
    | Windowed(#Editor)
    | Fullscreen(#Split) =>
      Windowed(#Editor)
    }
    {...state, mode: mode}
  | SetUploadError(error) => {...state, uploadState: ReadyToUpload(error)}
  | SetUploading => {...state, uploadState: Uploading}
  | FinishUploading => {...state, uploadState: ReadyToUpload(None)}
  }

let computeInitialState = ((value, textareaId, mode)) => {
  let id = switch textareaId {
  | Some(id) => id
  | None => DateTime.randomId()
  }

  let length = value |> String.length

  {id: id, mode: mode, selection: (length, length), uploadState: ReadyToUpload(None)}
}

let containerClasses = mode =>
  switch mode {
  | Windowed(_) => "relative bg-white overscroll-contain"
  | Fullscreen(
      _,
    ) => "bg-white fixed z-50 top-0 left-0 h-screen w-screen flex flex-col overscroll-contain"
  }

let modeIcon = (desiredMode, currentMode) => {
  let icon = switch (desiredMode, currentMode) {
  | (#Preview, Windowed(#Editor) | Fullscreen(#Editor) | Fullscreen(#Split)) => "fas fa-eye"
  | (#Preview, Windowed(#Preview) | Fullscreen(#Preview)) => "fas fa-pen-nib"
  | (#Split, Windowed(_) | Fullscreen(#Editor) | Fullscreen(#Preview)) => "fas fa-columns"
  | (#Split, Fullscreen(#Split)) => "far fa-window-maximize"
  | (#Fullscreen, Windowed(_)) => "fas fa-expand"
  | (#Fullscreen, Fullscreen(_)) => "fas fa-compress"
  }

  <FaIcon classes={"fa-fw " ++ icon} />
}

let onClickFullscreen = (state, send, _event) => {
  switch state.mode {
  | Windowed(_) => TextareaAutosize.destroy(state.id)
  | Fullscreen(_) => () // Do nothing here. We'll fix this in an effect.
  }

  send(ClickFullscreen)
}

let onClickPreview = (state, send, _event) => {
  switch state.mode {
  | Windowed(#Editor) => TextareaAutosize.destroy(state.id)
  | Windowed(#Preview)
  | Fullscreen(_) => () // Do nothing here. We'll fix this in an effect.
  }

  send(ClickPreview)
}

let onClickSplit = (state, send, _event) => {
  switch state.mode {
  | Windowed(_) => TextareaAutosize.destroy(state.id)
  | Fullscreen(_) => () // This should have no effect on textarea autosizing in full-screen mode.
  }

  send(ClickSplit)
}

let insertAt = (textToInsert, position, sourceText) => {
  let head = sourceText->String.sub(0, position)
  let tail = sourceText->String.sub(position, (sourceText |> String.length) - position)

  head ++ (textToInsert ++ tail)
}

let wrapWith = (wrapper, selectionStart, selectionEnd, sourceText) => {
  let head = sourceText->String.sub(0, selectionStart)
  let selection = sourceText->String.sub(selectionStart, selectionEnd - selectionStart)
  let tail = sourceText->String.sub(selectionEnd, (sourceText |> String.length) - selectionEnd)

  head ++ (wrapper ++ (selection ++ (wrapper ++ tail)))
}

@ocaml.doc(
  "
  * After changing the Markdown using any of the controls or key commands, the
  * textarea element will need to be manually \"synced\" in two ways:
  *
  * 1. The autosize update function needs to be called to let it know that we
  *    have changed the value of the textare from the outside.
  * 2. The cursor position will have jumped to the end of the text-area because
  *    of the manual change of value of the controlled component; we'll need to
  *    manually set the cursor position after the component has had a change to
  *    re-render.
  *
  * This function is making an assumption that re-render can happen in 25ms.
  * The need for these manual adjustments can be visibly seen by increasing the
  * renderDelay to something like 1000ms.
 *"
)
let updateTextareaAfterDelay = (state, (startPosition, endPosition)) => {
  let renderDelay = 25 //ms

  switch state.mode {
  | Windowed(_) =>
    Js.Global.setTimeout(() => TextareaAutosize.update(state.id), renderDelay) |> ignore
  | Fullscreen(_) => () // Autosizing is turned off in full-screen mode.
  }

  open Webapi.Dom
  switch document |> Document.getElementById(state.id) {
  | Some(element) => Js.Global.setTimeout(() => {
      element
      |> DomUtils.Element.unsafeToHtmlInputElement
      |> HtmlInputElement.setSelectionRange(startPosition, endPosition)
      Webapi.Dom.Document.getElementById(state.id, Webapi.Dom.document)
      ->Belt.Option.flatMap(Webapi.Dom.Element.asHtmlElement)
      ->Belt.Option.mapWithDefault((), Webapi.Dom.HtmlElement.focus)
    }, renderDelay) |> ignore
  | None => () // Avoid messing with the DOM if the textarea can't be found.
  }
}

let finalizeChange = (~newValue, ~state, ~send, ~onChange, ~offsetChange) => {
  let (selectionStart, selectionEnd) = state.selection

  // The cursor needs to be bumped to account for changed value.
  send(
    switch offsetChange {
    | #BumpSelection(offset) => BumpSelection(offset)
    | #SetSelection(selection) => SetSelection(selection)
    },
  )
  let (finalSelectionStart, finalSelectionEnd) = switch offsetChange {
  | #BumpSelection(offset) => (selectionStart + offset, selectionEnd + offset)
  | #SetSelection(start, selectionEnd) => (start, selectionEnd)
  }
  // Report the modified value to the parent.
  onChange(newValue)

  // Update the textarea after state changes are applied. Read more in function's documentation.
  updateTextareaAfterDelay(state, (finalSelectionStart, finalSelectionEnd))
}

type phraseModifer =
  | Bold
  | Italic
  | Strikethrough

let insertAndWrapper = phraseModifer =>
  switch phraseModifer {
  | Bold => ("**bold**", "**")
  | Italic => ("*italics*", "*")
  | Strikethrough => ("~~strikethrough~~", "~~")
  }

let modifyPhrase = (oldValue, state, send, onChange, phraseModifer) => {
  let (selectionStart, selectionEnd) = state.selection
  let (insert, wrapper) = phraseModifer |> insertAndWrapper

  let newValue = if selectionStart == selectionEnd {
    oldValue |> insertAt(insert, selectionStart)
  } else {
    oldValue |> wrapWith(wrapper, selectionStart, selectionEnd)
  }

  finalizeChange(
    ~newValue,
    ~state,
    ~send,
    ~onChange,
    ~offsetChange=selectionStart === selectionEnd
      ? #SetSelection(
          selectionStart + String.length(wrapper),
          selectionStart + String.length(insert) - String.length(wrapper),
        )
      : #BumpSelection(String.length(wrapper)),
  )
}

let controlsContainerClasses = mode =>
  "border bg-gray-100 text-sm px-2 flex justify-between items-end " ++
  switch mode {
  | Windowed(_) => "rounded-t border-gray-400 sticky top-0 z-20"
  | Fullscreen(_) => "border-gray-400 "
  }

let controls = (value, state, send, onChange) => {
  let buttonClasses = "px-2 py-1 hover:bg-gray-300 hover:text-primary-500 focus:outline-none "
  let {mode} = state
  let curriedModifyPhrase = modifyPhrase(value, state, send, onChange)

  <div className={controlsContainerClasses(state.mode)}>
    {switch mode {
    | Windowed(#Preview)
    | Fullscreen(#Preview) =>
      <div />
    | Windowed(#Editor)
    | Fullscreen(#Editor | #Split) =>
      <div className="bg-white border border-gray-400 rounded-t border-b-0">
        <button className=buttonClasses onClick={_ => curriedModifyPhrase(Bold)}>
          <i className="fas fa-bold fa-fw" />
        </button>
        <button
          className={buttonClasses ++ "border-l border-gray-400"}
          onClick={_ => curriedModifyPhrase(Italic)}>
          <i className="fas fa-italic fa-fw" />
        </button>
        <button
          className={buttonClasses ++ "border-l border-gray-400"}
          onClick={_ => curriedModifyPhrase(Strikethrough)}>
          <i className="fas fa-strikethrough fa-fw" />
        </button>
      </div>
    }}
    <div className="py-1">
      <button className={"rounded " ++ buttonClasses} onClick={onClickPreview(state, send)}>
        {modeIcon(#Preview, mode)}
      </button>
      <button
        className={buttonClasses ++ "rounded ml-1 hidden md:inline"}
        onClick={onClickSplit(state, send)}>
        {modeIcon(#Split, mode)}
      </button>
      <button
        className={buttonClasses ++ "rounded  ml-1 hidden md:inline"}
        onClick={onClickFullscreen(state, send)}>
        {modeIcon(#Fullscreen, mode)}
        {switch mode {
        | Fullscreen(_) =>
          <span className="ml-2 text-xs font-semibold"> {"Exit full-screen" |> str} </span>
        | Windowed(_) => React.null
        }}
      </button>
    </div>
  </div>
}

let modeClasses = mode =>
  switch mode {
  | Windowed(_) => ""
  | Fullscreen(_) => "flex flex-grow"
  }

let editorContainerClasses = mode =>
  "border-r border-gray-400 " ++
  switch mode {
  | Windowed(#Editor) => "border-l"
  | Windowed(#Preview) => "hidden"
  | Fullscreen(#Editor) => "w-full"
  | Fullscreen(#Preview) => "hidden"
  | Fullscreen(#Split) => "w-1/2"
  }

let previewType = mode =>
  switch mode {
  | Windowed(#Editor)
  | Fullscreen(#Editor) =>
    raise(InvalidModeForPreview)
  | Windowed(#Preview) => #WindowedPreview
  | Fullscreen(#Split) => #FullscreenSplit
  | Fullscreen(#Preview) => #FullscreenPreview
  }

let previewContainerClasses = mode =>
  "border-gray-400 bg-gray-100 " ++
  switch mode |> previewType {
  | #WindowedPreview => "markdown-editor__windowed-preview-container border-l border-r border-b rounded-b px-2 md:px-3"
  | #FullscreenPreview => "w-screen mx-auto"
  | #FullscreenSplit => "w-1/2 relative"
  }

let previewClasses = mode =>
  switch mode {
  | Fullscreen(
      #Split | #Preview,
    ) => "markdown-editor__fullscreen-preview-wrapper absolute max-h-full overflow-auto w-full px-4 pb-8"
  | Fullscreen(#Editor)
  | Windowed(_) => ""
  }

let focusOnEditor = id => {
  open Webapi.Dom

  Document.getElementById(id, document)
  ->Belt.Option.flatMap(HtmlElement.ofElement)
  ->Belt.Option.mapWithDefault((), element => element->HtmlElement.focus)
}

let handleUploadFileResponse = (oldValue, state, send, onChange, json) => {
  let errors = json |> {
    open Json.Decode
    field("errors", array(string))
  }

  if errors == [] {
    let markdownEmbedCode = json |> {
      open Json.Decode
      field("markdownEmbedCode", string)
    }

    let insert = "\n" ++ (markdownEmbedCode ++ "\n")
    let (_, selectionEnd) = state.selection
    let newValue = oldValue |> insertAt(insert, selectionEnd)
    finalizeChange(
      ~newValue,
      ~state,
      ~send,
      ~onChange,
      ~offsetChange=#BumpSelection({
        open String
        length(newValue) - length(oldValue)
      }),
    )
    send(FinishUploading)
  } else {
    send(SetUploadError(Some("Failed to attach file! " ++ (errors |> Js.Array.joinWith(", ")))))
  }
}

let submitForm = (formId, oldValue, state, send, onChange) => {
  open Webapi.Dom
  Document.getElementById(formId, document)->Belt.Option.mapWithDefault((), element => {
    let formData = DomUtils.FormData.create(element)

    Api.sendFormData(
      "/markdown_attachments/",
      formData,
      handleUploadFileResponse(oldValue, state, send, onChange),
      () =>
        send(
          SetUploadError(
            Some("An unexpected error occured! Please reload the page before trying again."),
          ),
        ),
    )
  })
}

let attachFile = (fileFormId, oldValue, state, send, onChange, event) =>
  switch ReactEvent.Form.target(event)["files"] {
  | [] => ()
  | files =>
    let file = files[0]
    let maxFileSize = 5 * 1024 * 1024

    let error =
      file["size"] > maxFileSize
        ? Some("The maximum file size is 5 MB. Please select another file.")
        : None

    switch error {
    | Some(_) => send(SetUploadError(error))
    | None =>
      send(SetUploading)
      submitForm(fileFormId, oldValue, state, send, onChange)
    }
  }

let footerContainerClasses = mode =>
  "markdown-editor__footer-container border bg-gray-100 flex justify-end items-center " ++
  switch mode {
  | Windowed(_) => "rounded-b border-gray-400"
  | Fullscreen(_) => "border-gray-400"
  }

let footer = (fileUpload, oldValue, state, send, onChange) => {
  let {id} = state
  let fileFormId = id ++ "-file-form"
  let fileInputId = id ++ "-file-input"

  switch state.mode {
  | Windowed(#Preview)
  | Fullscreen(#Preview) => React.null
  | Windowed(#Editor)
  | Fullscreen(#Editor | #Split) =>
    <div className={footerContainerClasses(state.mode)}>
      {<form
        className="flex items-center flex-wrap flex-1 text-sm font-semibold hover:bg-gray-300 hover:text-primary-500"
        id=fileFormId>
        <input name="authenticity_token" type_="hidden" value={AuthenticityToken.fromHead()} />
        <input
          className="hidden"
          type_="file"
          name="markdown_attachment[file]"
          id=fileInputId
          multiple=false
          onChange={attachFile(fileFormId, oldValue, state, send, onChange)}
        />
        {switch state.uploadState {
        | ReadyToUpload(error) =>
          <label className="text-xs px-3 py-2 flex-grow cursor-pointer" htmlFor=fileInputId>
            {switch error {
            | Some(error) =>
              <span className="text-red-500">
                <i className="fas fa-exclamation-triangle mr-2" /> {error |> str}
              </span>
            | None =>
              <span>
                <i className="far fa-file-image mr-2" /> {"Click here to attach a file." |> str}
              </span>
            }}
          </label>
        | Uploading =>
          <span className="text-xs px-3 py-2 flex-grow cursor-wait">
            <i className="fas fa-spinner fa-pulse mr-2" />
            {"Please wait for the file to upload..." |> str}
          </span>
        }}
      </form>->ReactUtils.nullUnless(fileUpload)}
      <a
        href="/help/markdown_editor"
        target="_blank"
        className="flex items-center px-3 py-2 hover:bg-gray-300 hover:text-secondary-500 cursor-pointer">
        <i className="fab fa-markdown text-sm" />
        <span className="text-xs ml-1 font-semibold hidden sm:inline"> {"Need help?" |> str} </span>
      </a>
    </div>
  }
}

let textareaClasses = mode =>
  "w-full outline-none font-mono " ++
  switch mode {
  | Windowed(_) => "p-3"
  | Fullscreen(_) => "px-3 pt-4 pb-8 h-full resize-none"
  }

let onChangeWrapper = (onChange, event) => {
  let value = ReactEvent.Form.target(event)["value"]
  onChange(value)
}

let onSelect = (send, event) => {
  let htmlInputElement =
    ReactEvent.Selection.target(event) |> DomUtils.EventTarget.unsafeToHtmlInputElement

  let selection = {
    open Webapi.Dom
    (
      htmlInputElement |> HtmlInputElement.selectionStart,
      htmlInputElement |> HtmlInputElement.selectionEnd,
    )
  }

  send(SetSelection(selection))
}

let handleEscapeKey = (send, event) =>
  switch event |> Webapi.Dom.KeyboardEvent.key {
  | "Escape" => send(PressEscapeKey)
  | _anyOtherKey => ()
  }

let handleKeyboardControls = (value, state, send, onChange, event) => {
  let ctrlKey = Webapi.Dom.KeyboardEvent.ctrlKey
  let metaKey = Webapi.Dom.KeyboardEvent.metaKey
  let curriedModifyPhrase = modifyPhrase(value, state, send, onChange)

  switch event |> Webapi.Dom.KeyboardEvent.key {
  | "b" when event |> ctrlKey || event |> metaKey => curriedModifyPhrase(Bold)
  | "i" when event |> ctrlKey || event |> metaKey => curriedModifyPhrase(Italic)
  | _anyOtherKey => ()
  }
}

module ScrollSync = {
  open Webapi.Dom

  /*
   * There's a tiny bit of math involved in correctly mapping the source
   * element's scroll position to the desired scroll of the target element.
   * The source's scrollTop varies from zero to a number that's the difference
   * between its scrollHeight and its offsetHeight; the same applies for the
   * target. This needs to be taken into account when mapping one scroll
   * position to the other.
   */
  let scrollTargetToSource = (~source, ~target, _event) => {
    let sourceScrollTop = source |> Element.scrollTop
    let sourceOffsetHeight = source |> Element.unsafeAsHtmlElement |> HtmlElement.offsetHeight
    let sourceScrollHeight = source |> Element.scrollHeight

    let scrollFraction =
      sourceScrollTop /. (sourceScrollHeight - sourceOffsetHeight |> float_of_int)

    let maxTargetScrollTop =
      (target |> Element.scrollHeight) -
        (target |> Element.unsafeAsHtmlElement |> HtmlElement.offsetHeight) |> float_of_int

    target->Element.setScrollTop(scrollFraction *. maxTargetScrollTop)
  }
}

@react.component
let make = (
  ~value,
  ~onChange,
  ~profile,
  ~textareaId=?,
  ~maxLength=1000,
  ~defaultMode=Windowed(#Editor),
  ~placeholder=?,
  ~tabIndex=?,
  ~fileUpload=true,
) => {
  let (state, send) = React.useReducerWithMapState(
    reducer,
    (value, textareaId, defaultMode),
    computeInitialState,
  )

  // Reset autosize when switching from full-screen mode.
  React.useEffect1(() => {
    switch state.mode {
    | Windowed(#Editor) => TextareaAutosize.create(state.id)
    | Windowed(#Preview)
    | Fullscreen(_) => () // Do nothing. This was handled in the click handler.
    }

    Some(() => TextareaAutosize.destroy(state.id))
  }, [state.mode])

  // Use Escape key to close full-screen mode.
  React.useEffect0(() => {
    let curriedHandler = handleEscapeKey(send)
    let documentEventTarget = {
      open Webapi.Dom
      document |> Document.asEventTarget
    }

    documentEventTarget |> Webapi.Dom.EventTarget.addKeyDownEventListener(curriedHandler)

    Some(
      () =>
        documentEventTarget |> Webapi.Dom.EventTarget.removeKeyDownEventListener(curriedHandler),
    )
  })

  // Handle keyboard shortcuts for Bold and Italics buttons.
  React.useEffect(() => {
    let curriedHandler = handleKeyboardControls(value, state, send, onChange)
    let textareaEventTarget = {
      open Webapi.Dom
      Document.getElementById(state.id, document)->Belt.Option.map(Element.asEventTarget)
    }

    textareaEventTarget->Belt.Option.mapWithDefault(
      (),
      Webapi.Dom.EventTarget.addKeyDownEventListener(curriedHandler),
    )

    Some(
      () =>
        textareaEventTarget->Belt.Option.mapWithDefault(
          (),
          Webapi.Dom.EventTarget.removeKeyDownEventListener(curriedHandler),
        ),
    )
  })

  React.useEffect1(() => {
    let textarea = {
      open Webapi.Dom
      document |> Document.getElementById(state.id)
    }
    let preview = {
      open Webapi.Dom
      document |> Document.getElementById(state.id ++ "-preview")
    }

    switch (textarea, preview) {
    | (Some(textarea), Some(preview)) =>
      let scrollCallback = ScrollSync.scrollTargetToSource(~source=textarea, ~target=preview)

      switch state.mode {
      | Fullscreen(#Split) =>
        textarea |> Webapi.Dom.Element.addEventListener("scroll", scrollCallback)

        Some(() => textarea |> Webapi.Dom.Element.removeEventListener("scroll", scrollCallback))
      | _anyOtherMode =>
        textarea |> Webapi.Dom.Element.removeEventListener("scroll", scrollCallback)
        None
      }
    | (_, _) => None
    }
  }, [state.mode])
  <div className={containerClasses(state.mode)}>
    {controls(value, state, send, onChange)}
    <div className={modeClasses(state.mode)}>
      <div className={editorContainerClasses(state.mode)}>
        <DisablingCover
          containerClasses="h-full"
          disabled={state.uploadState == Uploading}
          message="Uploading...">
          <textarea
            ?tabIndex
            ?placeholder
            ariaLabel="Markdown editor"
            rows=4
            maxLength
            onSelect={onSelect(send)}
            onChange={onChangeWrapper(onChange)}
            id=state.id
            value
            className={textareaClasses(state.mode)}
          />
        </DisablingCover>
      </div>
      {switch state.mode {
      | Windowed(#Editor)
      | Fullscreen(#Editor) => React.null
      | Windowed(#Preview)
      | Fullscreen(#Preview)
      | Fullscreen(#Split) =>
        <div className={previewContainerClasses(state.mode)}>
          <div id={state.id ++ "-preview"} className={previewClasses(state.mode)}>
            <MarkdownBlock
              markdown=value profile className="markdown-editor__fullscreen-preview-editor"
            />
          </div>
        </div>
      }}
    </div>
    {footer(fileUpload, value, state, send, onChange)}
  </div>
}
