module Level = CoursesReview__Level
module TargetInfo = CoursesReview__TargetInfo
module IndexSubmission = CoursesReview__IndexSubmission
module SubmissionDetails = CoursesReview__SubmissionDetails
module OverlaySubmission = CoursesReview__OverlaySubmission
module SubmissionMeta = CoursesReview__SubmissionMeta
module Feedback = CoursesReview__Feedback
module Grade = CoursesReview__Grade
module Coach = UserProxy
module ReviewChecklistItem = CoursesReview__ReviewChecklistItem
module ReviewChecklistResult = CoursesReview__ReviewChecklistResult
module Student = CoursesReview__Student
module SubmissionsSorting = CoursesReview__SubmissionsSorting
module Filter = CoursesReview__Filter
module User = AppRouter__User
